…
data_no_na <- data %>%
    drop_na()


data %>%
    select(where(is.character)) %>%
    map(fct_count, sort = TRUE, prop = TRUE)
```

```
## $company_manufacturer
## # A tibble: 580 × 3
##    f             n       p
##    <fct>     <int>   <dbl>
##  1 Soma         56 0.0221 
##  2 Fresco       39 0.0154 
##  3 Arete        32 0.0126 
##  4 Bonnat       30 0.0119 
##  5 A. Morin     26 0.0103 
##  6 Dandelion    25 0.00988
##  7 Pralus       25 0.00988
##  8 Domori       23 0.00909
##  9 Guittard     22 0.00870
## 10 Valrhona     22 0.00870
## # … with 570 more rows
## 
## $company_location
## # A tibble: 67 × 3
##    f               n      p
##    <fct>       <int>  <dbl>
##  1 U.S.A.       1136 0.449 
##  2 Canada        177 0.0700
##  3 France        176 0.0696
##  4 U.K.          133 0.0526
##  5 Italy          78 0.0308
##  6 Belgium        63 0.0249
##  7 Ecuador        58 0.0229
##  8 Australia      53 0.0209
##  9 Switzerland    44 0.0174
## 10 Germany        42 0.0166
## # … with 57 more rows
## 
## $country_of_bean_origin
## # A tibble: 62 × 3
##    f                      n      p
##    <fct>              <int>  <dbl>
##  1 Venezuela            253 0.1   
##  2 Peru                 244 0.0964
##  3 Dominican Republic   226 0.0893
##  4 Ecuador              219 0.0866
##  5 Madagascar           177 0.0700
##  6 Blend                156 0.0617
##  7 Nicaragua            100 0.0395
##  8 Bolivia               80 0.0316
##  9 Colombia              79 0.0312
## 10 Tanzania              79 0.0312
## # … with 52 more rows
## 
## $specific_bean_origin_or_bar_name
## # A tibble: 1,605 × 3
##    f                      n       p
##    <fct>              <int>   <dbl>
##  1 Madagascar            55 0.0217 
##  2 Ecuador               43 0.0170 
##  3 Peru                  41 0.0162 
##  4 Dominican Republic    38 0.0150 
##  5 Chuao                 28 0.0111 
##  6 Venezuela             21 0.00830
##  7 Kokoa Kamili          20 0.00791
##  8 Ghana                 17 0.00672
##  9 Papua New Guinea      17 0.00672
## 10 Sambirano             17 0.00672
## # … with 1,595 more rows
## 
## $ingredients
## # A tibble: 22 × 3
##    f                n       p
##    <fct>        <int>   <dbl>
##  1 3- B,S,C       999 0.395  
##  2 2- B,S         718 0.284  
##  3 4- B,S,C,L     286 0.113  
##  4 5- B,S,C,V,L   184 0.0727 
##  5 4- B,S,C,V     141 0.0557 
##  6 <NA>            87 0.0344 
##  7 2- B,S*         31 0.0123 
##  8 4- B,S*,C,Sa    20 0.00791
##  9 3- B,S*,C       12 0.00474
## 10 3- B,S,L         8 0.00316
## # … with 12 more rows
## 
## $most_memorable_characteristics
## # A tibble: 2,487 × 3
##    f                         n        p
##    <fct>                 <int>    <dbl>
##  1 creamy, nutty, cocoa      4 0.00158 
##  2 spicy, cocoa              4 0.00158 
##  3 cherry, rich choco        3 0.00119 
##  4 sandy, sweet              3 0.00119 
##  5 sandy, sweet, cocoa       3 0.00119 
##  6 sweet, marshmallow        3 0.00119 
##  7 sweet, vanilla, cocoa     3 0.00119 
##  8 basic cocoa               2 0.000791
##  9 brownie                   2 0.000791
## 10 cocoa, mild fruit         2 0.000791
## # … with 2,477 more rows
## 
## $BEANS
…
```r
data %>%
    group_by(specific_bean_origin_or_bar_name) %>%
    mutate(med_rating = median(rating), n = n()) %>%
    arrange(desc(med_rating)) %>%
    select(specific_bean_origin_or_bar_name, med_rating, n)
```

```
## # A tibble: 2,530 × 3
## # Groups:   specific_bean_origin_or_bar_name [1,605]
##    specific_bean_origin_or_bar_name         med_rating     n
##    <chr>                                         <dbl> <int>
##  1 Pablino                                           4     1
##  2 La Joya                                           4     1
##  3 Guayas                                            4     1
##  4 Morobe                                            4     1
##  5 Coto Brus, Terciopelo                             4     1
##  6 Phantom                                           4     1
##  7 Bali, Sukrama Bros. Farm, Melaya, 62hr C          4     1
##  8 Rio Peripa H.                                     4     1
##  9 Maracaibo, El Rosario                             4     1
## 10 Madagascar, 100% criollo                          4     1
## # … with 2,520 more rows
```
…
```r
data %>%
    count(ingredients, BEANS, sweetness, COCOA, VANILLA, LECITHIN, SALT)
```

```
## # A tibble: 22 × 8
##    ingredients BEANS    sweetness       COCOA            VANILLA    LECITHIN SALT      n
##    <chr>       <chr>    <chr>           <chr>            <chr>      <chr>    <chr> <int>
##  1 1- B        Contains No Sweetener    Does Not Contain Does Not … Does No… Does…     6
##  2 2- B,C      Contains No Sweetener    Contains         Does Not … Does No… Does…     1
##  3 2- B,S      Contains Sugar           Does Not Contain Does Not … Does No… Does…   718
##  4 2- B,S*     Contains Other Sweetener Does Not Contain Does Not … Does No… Does…    31
##  5 3- B,S,C    Contains Sugar           Contains         Does Not … Does No… Does…   999
##  6 3- B,S,L    Contains Sugar           Does Not Contain Does Not … Contains Does…     8
##  7 3- B,S,V    Contains Sugar           Does Not Contain Contains   Does No… Does…     3
##  8 3- B,S*,C   Contains Other Sweetener Contains         Does Not … Does No… Does…    12
##  9 3- B,S*,Sa  Contains Other Sweetener Does Not Contain Does Not … Does No… Cont…     1
## 10 4- B,S,C,L  Contains Sugar           Contains         Does Not … Contains Does…   286
## # … with 12 more rows
```
…
